{
  "theme": "base",
  "themeVariables": {
    "primaryColor": "#000830",
    "secondaryColor": "#76b748",
    "primaryTextColor": "white",
    "primaryBorderColor": "white",
    "lineColor": "white",
    "noteBkgColor": "#000830",
    "noteTextColor": "#f92672"
  }
}
